<?xml version="1.0" encoding="UTF-8"?>
<session version="1.0">
<refactoring comment="Move 3 elements to &apos;MIMDW-homework5/src/jms&apos;&#x0A;- Original project: &apos;MIMDW-homework5&apos;&#x0A;- Destination element: &apos;MIMDW-homework5/src/jms&apos;&#x0A;- Original elements:&#x0A;     JMSConsumer.java&#x0A;     Config.java&#x0A;     JMSProducer.java&#x0A;- Update references to refactored element" description="Move compilation units" destination="/src&lt;jms" element1="/src&lt;{JMSConsumer.java" element2="/src&lt;{Config.java" element3="/src&lt;{JMSProducer.java" files="0" flags="589830" folders="0" id="org.eclipse.jdt.ui.move" policy="org.eclipse.jdt.ui.moveResources" qualified="false" references="true" stamp="1448892701311" units="3" version="1.0"/>
</session>